Alif Ailan and ASER alifailan
…
#View(edf)

To change these variables to nice format

edf |> clean_names()

# A tibble: 580 × 51
   percent_boys_enrolled percent_complete_primary_schools percent_girls_enrolled
   <chr>                                            <dbl> <chr>                 
 1 54.77%                                           0.937 45.23%                
 2 62.50%                                           0.594 37.50%                
 3 86.63%                                           0.939 13.37%                
 4 60.77%                                           0.827 39.23%                
 5 60.75%                                           0.592 39.25%                
 6 58.48%                                           0.582 41.52%                
 7 68.36%                                           0.941 31.64%                
 8 80.78%                                           0.737 19.22%                
 9 62.60%                                           0.847 37.40%                
10 57.87%                                           0.707 42.13%                
# ℹ 570 more rows
# ℹ 48 more variables: percent_primary_schools_with_single_classroom <dbl>,
#   percent_primary_schools_with_single_teacher <dbl>,
#   all_four_facilities <chr>, any_one_facility <chr>,
#   any_three_facilities <chr>, any_two_facilities <chr>, area_km2 <dbl>,
#   bomb_blasts_occurred <dbl>,
#   boundary_wall_building_condition_satisfactory_drinking_water_and_2_more_clusters <chr>, …

edf |> clean_names()  #View()

# A tibble: 580 × 51
   percent_boys_enrolled percent_complete_primary_schools percent_girls_enrolled
   <chr>                                            <dbl> <chr>                 
 1 54.77%                                           0.937 45.23%                
 2 62.50%                                           0.594 37.50%                
 3 86.63%                                           0.939 13.37%                
 4 60.77%                                           0.827 39.23%                
 5 60.75%                                           0.592 39.25%                
 6 58.48%                                           0.582 41.52%                
 7 68.36%                                           0.941 31.64%                
 8 80.78%                                           0.737 19.22%                
 9 62.60%                                           0.847 37.40%                
10 57.87%                                           0.707 42.13%                
# ℹ 570 more rows
# ℹ 48 more variables: percent_primary_schools_with_single_classroom <dbl>,
#   percent_primary_schools_with_single_teacher <dbl>,
#   all_four_facilities <chr>, any_one_facility <chr>,
#   any_three_facilities <chr>, any_two_facilities <chr>, area_km2 <dbl>,
#   bomb_blasts_occurred <dbl>,
#   boundary_wall_building_condition_satisfactory_drinking_water_and_2_more_clusters <chr>, …

## Assign this data name as edf_c

edf |> clean_names() -> edf_c

Lets take year, province and city as first three and rename city as district

edf_c |> select(year, province, city, everything())

# A tibble: 580 × 51
    year province city         percent_boys_enrolled percent_complete_primary_…¹
   <dbl> <chr>    <chr>        <chr>                                       <dbl>
 1  2013 AJK      Bagh         54.77%                                      0.937
 2  2013 AJK      Bhimber      62.50%                                      0.594
 3  2013 AJK      Hattian      86.63%                                      0.939
 4  2013 AJK      Haveli       60.77%                                      0.827
 5  2013 AJK      Kotli        60.75%                                      0.592
 6  2013 AJK      Mirpur       58.48%                                      0.582
 7  2013 AJK      Muzaffarabad 68.36%                                      0.941
 8  2013 AJK      Neelum       80.78%                                      0.737
 9  2013 AJK      Poonch       62.60%                                      0.847
10  2013 AJK      Sudhnutti    57.87%                                      0.707
# ℹ 570 more rows
# ℹ abbreviated name: ¹​percent_complete_primary_schools
# ℹ 46 more variables: percent_girls_enrolled <chr>,
#   percent_primary_schools_with_single_classroom <dbl>,
#   percent_primary_schools_with_single_teacher <dbl>,
#   all_four_facilities <chr>, any_one_facility <chr>,
#   any_three_facilities <chr>, any_two_facilities <chr>, area_km2 <dbl>, …

## Lets assign this data as 
 edf_c |> select(year, province, city, everything()) |> rename(district=city) -> edu_df

## Use select to have variables containing percent 
 
 #View(edu_df)
 
 edu_df |> select(contains("percent"))

# A tibble: 580 × 7
   percent_boys_enrolled percent_complete_primary_schools percent_girls_enrolled
   <chr>                                            <dbl> <chr>                 
 1 54.77%                                           0.937 45.23%                
 2 62.50%                                           0.594 37.50%                
 3 86.63%                                           0.939 13.37%                
 4 60.77%                                           0.827 39.23%                
 5 60.75%                                           0.592 39.25%                
 6 58.48%                                           0.582 41.52%                
 7 68.36%                                           0.941 31.64%                
 8 80.78%                                           0.737 19.22%                
 9 62.60%                                           0.847 37.40%                
10 57.87%                                           0.707 42.13%                
# ℹ 570 more rows
# ℹ 4 more variables: percent_primary_schools_with_single_classroom <dbl>,
#   percent_primary_schools_with_single_teacher <dbl>,
#   number_of_primary_schools_as_percent_of_total_schools <dbl>,
#   number_of_secondary_schools_as_percent_of_total_schools <dbl>

edu_df |> select(ends_with("score")) 

# A tibble: 580 × 6
   education_score enrolment_score gender_parity_score learning_score
             <dbl>           <dbl>               <dbl>          <dbl>
 1            64.9            81.8                95.2           67.8
 2            74.5            80.3                87.5           54.9
 3            47.6            78.8                63.4           48.2
 4            53.0            80.8                89.2           42.1
 5            69.4            78.8                89.2           36.4
 6            71.8            76.8                91.5           47.5
 7            56.0            77.9                81.6           50.4
 8            67.3            74.7                69.2           55.4
 9            82.9            78.8                87.4           77.6
10            74.8            79.3                92.1           42  
# ℹ 570 more rows
# ℹ 2 more variables: retention_score <dbl>, school_infrastructure_score <dbl>
…
## Count year and district province wise

edf_c |> count(year,province)

# A tibble: 32 × 3
    year province        n
   <dbl> <chr>       <int>
 1  2013 AJK            10
 2  2013 Balochistan    30
 3  2013 FATA           13
 4  2013 GB              7
 5  2013 ICT             1
 6  2013 KP             25
 7  2013 Punjab         36
 8  2013 Sindh          23
 9  2014 AJK            10
10  2014 Balochistan    30
# ℹ 22 more rows
…
